…
moneyseed <- 100000
portion <- 0.5
shares <- c(portion*moneyseed/HSBC$HSBC.Adjusted[[1]],portion*moneyseed/BABA$BABA.Adjusted[[1]])

# need stock adjusted prices and number of shares to make a portfolio
prices.tbl <- as_tibble(fortify(merge(HSBC, BABA)))

port.tbl <- prices.tbl %>% select(Index,HSBC.Adjusted,BABA.Adjusted)
port.tbl
```

    ## # A tibble: 42 x 3
    ##    Index               HSBC.Adjusted BABA.Adjusted
    ##    <dttm>                      <dbl>         <dbl>
    ##  1 2022-01-03 00:00:00          46.8          115 
    ##  2 2022-01-04 00:00:00          47.8          117.
    ##  3 2022-01-05 00:00:00          49.2          114.
    ##  4 2022-01-06 00:00:00          49            121 
    ##  5 2022-01-07 00:00:00          50.1          129.
    ##  6 2022-01-10 00:00:00          51.7          128.
    ##  7 2022-01-11 00:00:00          52.0          126.
    ##  8 2022-01-12 00:00:00          52.8          133 
    ##  9 2022-01-13 00:00:00          53.7          132.
    ## 10 2022-01-14 00:00:00          54.5          129.
    ## # ... with 32 more rows

``` r
port.tbl <- port.tbl %>% mutate(port.value = shares[1]*HSBC.Adjusted+shares[2]*BABA.Adjusted)
port.tbl
```

    ## # A tibble: 42 x 4
    ##    Index               HSBC.Adjusted BABA.Adjusted port.value
    ##    <dttm>                      <dbl>         <dbl>      <dbl>
    ##  1 2022-01-03 00:00:00          46.8          115     100000 
    ##  2 2022-01-04 00:00:00          47.8          117.    101840.
    ##  3 2022-01-05 00:00:00          49.2          114.    102237.
    ##  4 2022-01-06 00:00:00          49            121     104903.
    ##  5 2022-01-07 00:00:00          50.1          129.    109469.
    ##  6 2022-01-10 00:00:00          51.7          128.    110654.
    ##  7 2022-01-11 00:00:00          52.0          126.    110052.
    ##  8 2022-01-12 00:00:00          52.8          133     114123.
    ##  9 2022-01-13 00:00:00          53.7          132.    114735.
    ## 10 2022-01-14 00:00:00          54.5          129.    114435.
    ## # ... with 32 more rows
…
