…
``` r
## To get all the close prices
## into a single xts object
cl.stocks.xts <- Reduce(merge,eapply(hkport, Cl))
colnames(cl.stocks.xts) <- sub('X','',colnames(cl.stocks.xts))

cl.stocks.tbl <- as_tibble(fortify(cl.stocks.xts))
cl.stocks.long.tbl <- cl.stocks.tbl %>% 
  pivot_longer(!Index,
               names_to = "tickers", 
               values_to = "Close.Prices")
cl.stocks.long.tbl
```

    ## # A tibble: 1,102 x 3
    ##    Index               tickers       Close.Prices
    ##    <dttm>              <chr>                <dbl>
    ##  1 2020-01-02 00:00:00 0316.HK.Close         37.7
    ##  2 2020-01-02 00:00:00 2800.HK.Close         28.7
    ##  3 2020-01-03 00:00:00 0316.HK.Close         37  
    ##  4 2020-01-03 00:00:00 2800.HK.Close         28.6
    ##  5 2020-01-06 00:00:00 0316.HK.Close         38.8
    ##  6 2020-01-06 00:00:00 2800.HK.Close         28.5
    ##  7 2020-01-07 00:00:00 0316.HK.Close         38  
    ##  8 2020-01-07 00:00:00 2800.HK.Close         28.5
    ##  9 2020-01-08 00:00:00 0316.HK.Close         37.8
    ## 10 2020-01-08 00:00:00 2800.HK.Close         28.2
    ## # ... with 1,092 more rows
…
