…
``` r
## To get all the adjusted close prices
## into a single xts object
ad.HSI.xts <- Reduce(merge,eapply(hkport, Ad))
colnames(ad.HSI.xts) <- sub('X','',colnames(ad.HSI.xts))

ad.HSI.tbl <- as_tibble(fortify(ad.HSI.xts))
ad.HSI.long.tbl <- ad.HSI.tbl %>% 
  pivot_longer(!Index,
               names_to = "tickers", 
               values_to = "Adjusted.Close")
ad.HSI.long.tbl
```

    ## # A tibble: 3,102 x 3
    ##    Index               tickers          Adjusted.Close
    ##    <dttm>              <chr>                     <dbl>
    ##  1 2022-01-03 00:00:00 6098.HK.Adjusted          44.6 
    ##  2 2022-01-03 00:00:00 3988.HK.Adjusted           2.83
    ##  3 2022-01-03 00:00:00 3690.HK.Adjusted         223.  
    ##  4 2022-01-03 00:00:00 2628.HK.Adjusted          13   
    ##  5 2022-01-03 00:00:00 0175.HK.Adjusted          21.3 
    ##  6 2022-01-03 00:00:00 0012.HK.Adjusted          33.2 
    ##  7 2022-01-03 00:00:00 0003.HK.Adjusted          12.3 
    ##  8 2022-01-03 00:00:00 0823.HK.Adjusted          68.7 
    ##  9 2022-01-03 00:00:00 0968.HK.Adjusted          13.2 
    ## 10 2022-01-03 00:00:00 0288.HK.Adjusted           4.93
    ## # ... with 3,092 more rows
…
