…
moneyseed <- 100000
portion <- 0.5
shares <- c(portion*moneyseed/HSBC$HSBC.Adjusted[[1]],
            portion*moneyseed/BABA$BABA.Adjusted[[1]],
            moneyseed/HKTR$HKTR.Adjusted[[1]])

# need stock adjusted prices and number of shares to make a portfolio
prices.tbl <- as_tibble(fortify(merge(HSBC, BABA, HKTR)))

port.tbl <- prices.tbl %>% 
  select(Index,HSBC.Adjusted,BABA.Adjusted,HKTR.Adjusted)
port.tbl
```

    ## # A tibble: 45 x 4
    ##    Index               HSBC.Adjusted BABA.Adjusted HKTR.Adjusted
    ##    <dttm>                      <dbl>         <dbl>         <dbl>
    ##  1 2022-01-03 00:00:00          46.7          115           23.4
    ##  2 2022-01-04 00:00:00          47.6          117.          23.4
    ##  3 2022-01-05 00:00:00          49.0          114.          23.0
    ##  4 2022-01-06 00:00:00          48.8          121           23.2
    ##  5 2022-01-07 00:00:00          49.9          129.          23.6
    ##  6 2022-01-10 00:00:00          51.5          128.          23.8
    ##  7 2022-01-11 00:00:00          51.8          126.          23.9
    ##  8 2022-01-12 00:00:00          52.6          133           24.5
    ##  9 2022-01-13 00:00:00          53.5          132.          24.6
    ## 10 2022-01-14 00:00:00          54.4          129.          24.5
    ## # ... with 35 more rows

``` r
port.tbl <- port.tbl %>% 
  mutate(port.value = shares[1]*HSBC.Adjusted + 
           shares[2]*BABA.Adjusted) %>% 
  mutate(mktport.value = shares[3]*HKTR.Adjusted)
port.tbl
```

    ## # A tibble: 45 x 6
    ##    Index               HSBC.Adjusted BABA.Adjusted HKTR.Adjusted port.value mktport.value
    ##    <dttm>                      <dbl>         <dbl>         <dbl>      <dbl>         <dbl>
    ##  1 2022-01-03 00:00:00          46.7          115           23.4    100000        100000 
    ##  2 2022-01-04 00:00:00          47.6          117.          23.4    101840.       100171.
    ##  3 2022-01-05 00:00:00          49.0          114.          23.0    102237.        98462.
    ##  4 2022-01-06 00:00:00          48.8          121           23.2    104903.        99231.
    ##  5 2022-01-07 00:00:00          49.9          129.          23.6    109469.       101026.
    ##  6 2022-01-10 00:00:00          51.5          128.          23.8    110654.       101880.
    ##  7 2022-01-11 00:00:00          51.8          126.          23.9    110052.       101966.
    ##  8 2022-01-12 00:00:00          52.6          133           24.5    114123.       104701.
    ##  9 2022-01-13 00:00:00          53.5          132.          24.6    114735.       104957.
    ## 10 2022-01-14 00:00:00          54.4          129.          24.5    114435.       104615.
    ## # ... with 35 more rows
…
``` r
port.long.tbl <- port.tbl %>%
  pivot_longer(c(port.value,mktport.value), 
               names_to = "Portfolio", 
               values_to = "Value") %>% 
  select(c(Index,Portfolio,Value))
port.long.tbl
```

    ## # A tibble: 90 x 3
    ##    Index               Portfolio       Value
    ##    <dttm>              <chr>           <dbl>
    ##  1 2022-01-03 00:00:00 port.value    100000 
    ##  2 2022-01-03 00:00:00 mktport.value 100000 
    ##  3 2022-01-04 00:00:00 port.value    101840.
    ##  4 2022-01-04 00:00:00 mktport.value 100171.
    ##  5 2022-01-05 00:00:00 port.value    102237.
    ##  6 2022-01-05 00:00:00 mktport.value  98462.
    ##  7 2022-01-06 00:00:00 port.value    104903.
    ##  8 2022-01-06 00:00:00 mktport.value  99231.
    ##  9 2022-01-07 00:00:00 port.value    109469.
    ## 10 2022-01-07 00:00:00 mktport.value 101026.
    ## # ... with 80 more rows
…
